750
29 
33 
21 
860 
5 
434 437 
166 
942 
228 
490 492 
407 408 
735 737 
231 234 
912 915 
668 670 
846 847 
452 454 
512 513 
386 388 
368 371 
259 262 
390 392 
832 833 
91 93 
401 402 
313 
64 65 
730 
342 
656 
621 
520 
867 
605 
964 
591 
351 
158 160 
468 
864 
54 55 
615 617 
945 946 
75 
616 
755 
184 
24 
766 
831 
389 
913 
691 
875 
310 318 
278 
764 
803 
886 
708 
444 445 
692 
267 
282 
303 
256 257 
283 
746 
170 
56 
593 
400 
530 
380 
687 
429 
776 
671 
328 
795 796 
543 544 
422 424 
510 511 
6 8 
837 838 
607 608 
662 664 
866 868 
457 
96 97 
973 974 
697 698 
609 612 
765 769 
610 
291 295 
614 
176 
132 
276 
42 
804 
122 
43 
110 
293 
74 
639 
919 920 
52 53 
320 
102 104 
337 338 
246 248 
70 
695 696 
226 227 
105 108 
947 949 
339 341 
474 475 
861 862 
710 711 
216 
476 478 
92 
514 
222 
869 
453 
843 
966 
889 
120 
638 
937 940 
27 30 
31 32 
151 152 
562 563 
939 
526 
554 
938 
970 
575 
38 
586 587 
354 
589 590 
821 
921 
809 
637 643 
595 598 
952 953 
86 88 
472 
302 
367 
398 399 
551 
348 
611 
741 
726 731 
81 
450 
281 
335 336 
660 661 
459 461 
84 85 
975 
705 709 
506 
334 
356 
933 
848 
381 
845 
623 
502 
830 
418 419 
827 
829 
878 
734 
60 
9 
819 
679 
346 
592 
555 
22 
775 
990 991 
992 
641 
489 
649 
441 
972 
329 
347 
893 
626 
629 
812 
116 117 
324 327 
301 
736 
211 
925 
333 
430 
387 
138 143 
712 
594 
241 
678 
747 
15 18 
811 
720 721 
871 872 
372 373 
759 760 
214 215 
681 683 
375 376 
504 
732 
565 
650 
3 
646 
141 
985 988 
103 
286 
78 
442 
420 
435 
658 
485 
13 
606 
287 
879 881 
545 547 
345 350 
588 
997 
998 
761 
927 928 
139 
802 
149 
59 61 
364 
956 957 
403 405 
145 
768 
40 44 
168 169 
45 
235 
519 
541 
983 
349 
850 
853 856 
409 410 
359 363 
813 814 
251 
882 883 
156 157 
10 12 
163 165 
818 824 
466 469 
343 344 
153 155 
753 758 
906 
48 
935 
751 752 
90 
657 659 
83 
618 619 
218 221 
557 
509 
665 666 
305 
805 806 
77 
41 
433 
34 
314 
4 
880 
922 
729 
426 427 
907 
725 
477 
718 
599 600 
202 
980 981 
180 182 
834 835 
196 
436 
413 414 
416 
123 124 
129 130 
111 
423 
756 
601 603 
754 
926 
568 571 
523 524 
515 
569 
597 
321 322 
1 
292 
648 
702 
888 
706 
836 
225 
967 968 
98 
140 
673 674 
136 
312 
177 
107 
212 
624 625 
521 522 
647 
500 
825 828 
564 566 
131 133 
491 
976 
917 
874 
890 
493 
826 
100 
528 529 
300 
393 
859 
340 
969 
517 518 
294 
898 901 
279 
704 
174 
7 
963 
779 
23 
567 
596 
171 172 
80 82 
771 
560 
16 
531 
559 
686 689 
672 
488 
631 632 
438 443 
391 
908 
950 
397 
791 
483 
154 
192 
186 
205 
213 
230 
497 
206 207 
507 
28 
456 
694 
854 
240 
112 
14 
229 
576 
62 
0 2 
996 999 
738 
786 
374 
377 
954 
842 
790 
440 
719 
499 
723 
627 
203 
546 
118 119 
793 794 
106 
644 
309 
274 
232 
317 
239 
782 783 
534 535 
989 
39 
323 
135 
36 37 
739 
447 449 
311 
164 
780 
245 
148 
411 
785 
425 
792 
353 355 
815 
254 
728 
277 
778 
332 
743 
532 
71 72 
667 
904 909 
46 47 
675 676 
243 244 
553 558 
217 
415 417 
273 280 
561 
87 
223 224 
484 487 
808 810 
114 115 
840 841 
572 573 
902 903 
178 
839 
357 
787 
944 
895 
473 
360 
986 
439 
480 
896 
19 
446 
406 
742 
533 
275 
20 26 
581 582 
298 
579 580 
57 58 
384 385 
462 
707 
857 858 
464 465 
470 471 
198 199 
238 242 
905 
17 
570 
951 
125 
76 79 
127 
365 366 
50 
479 
296 
977 979 
161 162 
958 960 
961 965 
193 
994 
916 918 
188 190 
200 204 
716 717 
800 801 
73 
633 634 
537 542 
270 271 
265 
516 
268 
677 
144 146 
252 253 
855 
25 
602 
505 
63 
194 
467 
690 
486 
682 
448 
877 
352 
865 
669 
404 
362 
733 
870 
663 
604 
113 
494 495 
583 585 
899 
249 250 
931 
971 
699 700 
109 
820 
181 
797 798 
236 237 
987 
272 
684 685 
584 
501 503 
894 897 
289 290 
496 498 
460 
784 
654 
549 
431 
556 
923 
932 934 
299 
525 527 
99 101 
550 
297 304 
463 
727 
613 
369 
941 943 
655 
142 
822 
713 
959 
914 
421 
900 
749 750 
548 552 
962 
774 781 
187 
788 789 
481 482 
936 
635 636 
263 264 
247 
255 
924 
261 
884 885 
620 622 
740 744 
993 995 
49 51 
816 817 
183 185 
982 984 
134 137 
382 383 
260 
891 892 
770 773 
451 
745 
220 
121 
540 
284 
316 
308 
315 
35 
358 
233 
455 458 
873 876 
197 
887 
126 128 
89 
852 
208 
645 
652 
640 
538 
642 
680 
412 
757 
844 
823 
378 
428 432 
628 630 
306 307 
701 703 
189 
724 
201 
577 578 
159 
370 
68 69 
11 
209 
777 
179 
191 195 
762 763 
219 
955 
396 
361 
910 911 
799 
167 
258 
688 
714 715 
536 
147 150 
929 930 
66 67 
285 288 
94 95 
394 395 
330 331 
173 175 
851 
379 
849 
693 
863 
266 269 
651 653 
210 
539 
508 
574 
807 
722 
978 
767 
319 
325 
326 
748 
772 
948 
